{
    "name": "OnlineOrder",
    "fields": [
        {
            "fieldName": "orderNumber",
            "fieldType": "String"
        },
        {
            "fieldName": "customerId",
            "fieldType": "String"
        },
        {
            "fieldName": "items",
            "fieldType": "String"
        },
        {
            "fieldName": "totalPrice",
            "fieldType": "String"
        },
        {
            "fieldName": "description",
            "fieldType": "String"
        },
        {
            "fieldName": "status",
            "fieldType": "OrderStatus",
            "fieldValues": "CREATED,ACCEPTED,PROCESSING,DELIVERED,REJECTED"
        },
        {
            "fieldName": "isShipped",
            "fieldType": "Boolean"
        },
        {
            "fieldName": "isProgressed",
            "fieldType": "Boolean"
        },
        {
            "fieldName": "createdOn",
            "fieldType": "Instant"
        },
        {
            "fieldName": "updatedOn",
            "fieldType": "Instant"
        },
        {
            "fieldName": "shippedDate",
            "fieldType": "String"
        }
    ],
    "relationships": [],
    "changelogDate": "20190610055018",
    "entityTableName": "online_order",
    "dto": "no",
    "pagination": "no",
    "service": "no",
    "jpaMetamodelFiltering": false,
    "fluentMethods": true,
    "clientRootFolder": "",
    "applications": "*"
}